\relax 
\gdef \LT@i {\LT@entry 
    {1}{61.8834pt}\LT@entry 
    {1}{97.35826pt}\LT@entry 
    {1}{140.0374pt}\LT@entry 
    {1}{44.63712pt}}
\@writefile{toc}{\contentsline {section}{\numberline {1}Wymagania systemowe}{1}}
\@writefile{toc}{\contentsline {section}{\numberline {2}Architektura i u\IeC {\.z}yte technologie}{1}}
\gdef \LT@ii {\LT@entry 
    {1}{27.67972pt}\LT@entry 
    {1}{140.0374pt}\LT@entry 
    {1}{154.26378pt}\LT@entry 
    {1}{57.00119pt}}
\@writefile{toc}{\contentsline {section}{\numberline {3}Biblioteki}{2}}
\@writefile{toc}{\contentsline {section}{\numberline {4}Instrukcja u\IeC {\.z}ycia}{2}}
\@writefile{toc}{\contentsline {subsection}{\numberline {4.1}Ekran g\IeC {\l }\IeC {\'o}wny}{2}}
\@writefile{lof}{\contentsline {figure}{\numberline {1}{\ignorespaces G\IeC {\l }\IeC {\'o}wny ekran}}{3}}
\@writefile{toc}{\contentsline {subsection}{\numberline {4.2}Dodanie nowego wydarzenia / Edycja}{3}}
\@writefile{lof}{\contentsline {figure}{\numberline {2}{\ignorespaces Dodawanie nowego wydarzenia}}{4}}
\@writefile{toc}{\contentsline {subsection}{\numberline {4.3}Mapa}{4}}
\@writefile{lof}{\contentsline {figure}{\numberline {3}{\ignorespaces Mapa z trzema lokalizacjami}}{5}}
\@writefile{toc}{\contentsline {subsection}{\numberline {4.4}Miejsca}{5}}
\@writefile{toc}{\contentsline {subsection}{\numberline {4.5}Notyfikacje}{6}}
\@writefile{toc}{\contentsline {subsection}{\numberline {4.6}Plan dnia}{6}}
\gdef \LT@iii {\LT@entry 
    {1}{27.67972pt}\LT@entry 
    {1}{42.02107pt}\LT@entry 
    {1}{296.52756pt}}
\@writefile{lof}{\contentsline {figure}{\numberline {4}{\ignorespaces Plan dnia}}{7}}
\@writefile{toc}{\contentsline {section}{\numberline {5}Lista u\IeC {\.z}ytych skr\IeC {\'o}t\IeC {\'o}w}{7}}
