\contentsline {section}{\numberline {1}Wymagania systemowe}{1}
\contentsline {section}{\numberline {2}Architektura i u\IeC {\.z}yte technologie}{1}
\contentsline {section}{\numberline {3}Biblioteki}{2}
\contentsline {section}{\numberline {4}Instrukcja u\IeC {\.z}ycia}{2}
\contentsline {subsection}{\numberline {4.1}Ekran g\IeC {\l }\IeC {\'o}wny}{2}
\contentsline {subsection}{\numberline {4.2}Dodanie nowego wydarzenia / Edycja}{3}
\contentsline {subsection}{\numberline {4.3}Mapa}{4}
\contentsline {subsection}{\numberline {4.4}Miejsca}{5}
\contentsline {subsection}{\numberline {4.5}Notyfikacje}{6}
\contentsline {subsection}{\numberline {4.6}Plan dnia}{6}
\contentsline {section}{\numberline {5}Lista u\IeC {\.z}ytych skr\IeC {\'o}t\IeC {\'o}w}{7}
