\contentsline {section}{\numberline {1}Wymagania systemowe}{1}
\contentsline {section}{\numberline {2}Architektura i u\IeC {\.z}yte technologie}{1}
\contentsline {section}{\numberline {3}Biblioteki}{2}
\contentsline {section}{\numberline {4}Instrukcja instalacji}{2}
\contentsline {section}{\numberline {5}Instrukcja u\IeC {\.z}ycia}{6}
\contentsline {subsection}{\numberline {5.1}Ekran g\IeC {\l }\IeC {\'o}wny}{6}
\contentsline {subsection}{\numberline {5.2}Dodanie nowego wydarzenia / Edycja}{6}
\contentsline {subsection}{\numberline {5.3}Mapa}{7}
\contentsline {subsection}{\numberline {5.4}Miejsca}{7}
\contentsline {subsection}{\numberline {5.5}Notyfikacje}{7}
\contentsline {subsection}{\numberline {5.6}Ustawienia}{7}
\contentsline {subsection}{\numberline {5.7}Plan dnia}{8}
\contentsline {section}{\numberline {6}Odst\IeC {\k e}pstwa od specyfikacji wymaga\IeC {\'n}}{8}
\contentsline {section}{\numberline {7}Lista u\IeC {\.z}ytych skr\IeC {\'o}t\IeC {\'o}w}{8}
